Mention,Parcours,Diplome,AnneeDiplome,Specialite,DateDebutAnnee,DateFinAnnee,DebutSemestreImpair,FinSemestreImpair,DebutSemestrePair,FinSemestrePair,EtudiantInscrit,UE
Informatique,DIFS,Licence,L1,Sciences du Numerique,2021-09-01,2022-05-31,2021-09-01,2021-12-20,2022-01-10,2022-05-31,1/2/3/6/8/,null,
Informatique,DIFS,Licence,L2,Sciences du Numerique,2021-09-01,2022-05-31,2021-09-01,2021-12-20,2022-01-10,2022-05-31,5486254/,null,
Informatique,DIFS,Licence,L3,Sciences du Numerique,2021-09-01,2022-05-31,2021-09-01,2021-12-20,2022-01-10,2022-05-31,null,null,
Informatique,MIDL,Licence,L1,Sciences du Numerique,2021-09-01,2022-05-31,2021-09-01,2021-12-20,2022-01-10,2022-05-31,null,null,
Informatique,MIDL,Licence,L2,Sciences du Numerique,2021-09-01,2022-05-31,2021-09-01,2021-12-20,2022-01-10,2022-05-31,null,null,
Informatique,MIDL,Licence,L3,Sciences du Numerique,2021-09-01,2022-05-31,2021-09-01,2021-12-20,2022-01-10,2022-05-31,null,null,
Informatique,INFO,Licence,L1,Sciences du Numerique,2021-09-01,2022-05-31,2021-09-01,2021-12-20,2022-01-10,2022-05-31,null,null,
Informatique,INFO,Licence,L2,Sciences du Numerique,2021-09-01,2022-05-31,2021-09-01,2021-12-20,2022-01-10,2022-05-31,null,null,
Informatique,INFO,Licence,L3,Sciences du Numerique,2021-09-01,2022-05-31,2021-09-01,2021-12-20,2022-01-10,2022-05-31,null,null,
Informatique,IRT,Licence,L1,Sciences du Numerique,2021-09-01,2022-05-31,2021-09-01,2021-12-20,2022-01-10,2022-05-31,null,null,
Informatique,IRT,Licence,L2,Sciences du Numerique,2021-09-01,2022-05-31,2021-09-01,2021-12-20,2022-01-10,2022-05-31,null,null,
Informatique,IRT,Licence,L3,Sciences du Numerique,2021-09-01,2022-05-31,2021-09-01,2021-12-20,2022-01-10,2022-05-31,null,null,
Miashs,MIAGE,Licence,L1,Sciences du Numerique,2021-09-01,2022-05-31,2021-09-01,2021-12-20,2022-01-10,2022-05-31,null,null,
Miashs,MIAGE,Licence,L2,Sciences du Numerique,2021-09-01,2022-05-31,2021-09-01,2021-12-20,2022-01-10,2022-05-31,null,22/23/24/25/26/27/28/29/30/31/32/33/34/35/36/37/38/39/40/41,
Miashs,MIAGE,Licence,L3,Sciences du Numerique,2021-09-01,2022-05-31,2021-09-01,2021-12-20,2022-01-10,2022-05-31,1/2/3/4/5/6/7/8/9/60/58/,4/5/6/7/8/9/10/11/12/13/14/15/16/17/18/,
Miashs,IO,Licence,L1,Sciences du Numerique,2021-09-01,2022-05-31,2021-09-01,2021-12-20,2022-01-10,2022-05-31,null,null,
Miashs,IO,Licence,L2,Sciences du Numerique,2021-09-01,2022-05-31,2021-09-01,2021-12-20,2022-01-10,2022-05-31,null,null,
Miashs,IO,Licence,L3,Sciences du Numerique,2021-09-01,2022-05-31,2021-09-01,2021-12-20,2022-01-10,2022-05-31,null,null,
EEA,EEA-EAD,Licence,L1,Sciences Appliquees,2021-09-01,2022-05-31,2021-09-01,2021-12-20,2022-01-10,2022-05-31,null,null,
EEA,EEA-EAD,Licence,L2,Sciences Appliquees,2021-09-01,2022-05-31,2021-09-01,2021-12-20,2022-01-10,2022-05-31,null,null,
EEA,EEA-EAD,Licence,L3,Sciences Appliquees,2021-09-01,2022-05-31,2021-09-01,2021-12-20,2022-01-10,2022-05-31,null,null,
EEA,EAF,Licence,L1,Sciences Appliquees,2021-09-01,2022-05-31,2021-09-01,2021-12-20,2022-01-10,2022-05-31,null,null,
EEA,EAF,Licence,L2,Sciences Appliquees,2021-09-01,2022-05-31,2021-09-01,2021-12-20,2022-01-10,2022-05-31,null,null,
EEA,EAF,Licence,L3,Sciences Appliquees,2021-09-01,2022-05-31,2021-09-01,2021-12-20,2022-01-10,2022-05-31,null,null,
EEA,ISS,Licence,L1,Sciences Appliquees,2021-09-01,2022-05-31,2021-09-01,2021-12-20,2022-01-10,2022-05-31,null,null,
EEA,ISS,Licence,L2,Sciences Appliquees,2021-09-01,2022-05-31,2021-09-01,2021-12-20,2022-01-10,2022-05-31,null,null,
EEA,ISS,Licence,L3,Sciences Appliquees,2021-09-01,2022-05-31,2021-09-01,2021-12-20,2022-01-10,2022-05-31,null,null,
EEA,EEA-REL,Licence,L1,Sciences Appliquees,2021-09-01,2022-05-31,2021-09-01,2021-12-20,2022-01-10,2022-05-31,null,null,
EEA,EEA-REL,Licence,L2,Sciences Appliquees,2021-09-01,2022-05-31,2021-09-01,2021-12-20,2022-01-10,2022-05-31,null,null,
EEA,EEA-REL,Licence,L3,Sciences Appliquees,2021-09-01,2022-05-31,2021-09-01,2021-12-20,2022-01-10,2022-05-31,null,null,
Genie Civil,GC,Licence,L1,Sciences Appliquees,2021-09-01,2022-05-31,2021-09-01,2021-12-20,2022-01-10,2022-05-31,null,null,
Genie Civil,GC,Licence,L2,Sciences Appliquees,2021-09-01,2022-05-31,2021-09-01,2021-12-20,2022-01-10,2022-05-31,null,null,
Genie Civil,GC,Licence,L3,Sciences Appliquees,2021-09-01,2022-05-31,2021-09-01,2021-12-20,2022-01-10,2022-05-31,null,null,
Mecanique,GH,Licence,L1,Sciences Appliquees,2021-09-01,2022-05-31,2021-09-01,2021-12-20,2022-01-10,2022-05-31,null,null,
Mecanique,GH,Licence,L2,Sciences Appliquees,2021-09-01,2022-05-31,2021-09-01,2021-12-20,2022-01-10,2022-05-31,null,null,
Mecanique,GH,Licence,L3,Sciences Appliquees,2021-09-01,2022-05-31,2021-09-01,2021-12-20,2022-01-10,2022-05-31,null,null,
Mecanique,ME,Licence,L1,Sciences Appliquees,2021-09-01,2022-05-31,2021-09-01,2021-12-20,2022-01-10,2022-05-31,null,null,
Mecanique,ME,Licence,L2,Sciences Appliquees,2021-09-01,2022-05-31,2021-09-01,2021-12-20,2022-01-10,2022-05-31,null,null,
Mecanique,ME,Licence,L3,Sciences Appliquees,2021-09-01,2022-05-31,2021-09-01,2021-12-20,2022-01-10,2022-05-31,null,null,
Mecanique,GMA,Licence,L1,Sciences Appliquees,2021-09-01,2022-05-31,2021-09-01,2021-12-20,2022-01-10,2022-05-31,null,null,
Mecanique,GMA,Licence,L2,Sciences Appliquees,2021-09-01,2022-05-31,2021-09-01,2021-12-20,2022-01-10,2022-05-31,null,null,
Mecanique,GMA,Licence,L3,Sciences Appliquees,2021-09-01,2022-05-31,2021-09-01,2021-12-20,2022-01-10,2022-05-31,null,null,
Science de la Terre,REOSTE,Licence,L1,Sciences biologiques-Geosciences,2021-09-01,2022-05-31,2021-09-01,2021-12-20,2022-01-10,2022-05-31,null,null,
Science de la Terre,REOSTE,Licence,L2,Sciences biologiques-Geosciences,2021-09-01,2022-05-31,2021-09-01,2021-12-20,2022-01-10,2022-05-31,null,null,
Science de la Terre,REOSTE,Licence,L3,Sciences biologiques-Geosciences,2021-09-01,2022-05-31,2021-09-01,2021-12-20,2022-01-10,2022-05-31,null,null,
Science de la Terre,STE,Licence,L1,Sciences biologiques-Geosciences,2021-09-01,2022-05-31,2021-09-01,2021-12-20,2022-01-10,2022-05-31,null,null,
Science de la Terre,STE,Licence,L2,Sciences biologiques-Geosciences,2021-09-01,2022-05-31,2021-09-01,2021-12-20,2022-01-10,2022-05-31,null,null,
Science de la Terre,STE,Licence,L3,Sciences biologiques-Geosciences,2021-09-01,2022-05-31,2021-09-01,2021-12-20,2022-01-10,2022-05-31,null,null,
Science de la Vie,2B2M,Licence,L1,Sciences biologiques-Geosciences,2021-09-01,2022-05-31,2021-09-01,2021-12-20,2022-01-10,2022-05-31,null,null,
Science de la Vie,2B2M,Licence,L2,Sciences biologiques-Geosciences,2021-09-01,2022-05-31,2021-09-01,2021-12-20,2022-01-10,2022-05-31,null,null,
Science de la Vie,2B2M,Licence,L3,Sciences biologiques-Geosciences,2021-09-01,2022-05-31,2021-09-01,2021-12-20,2022-01-10,2022-05-31,null,null,
Science de la Vie,BCP,Licence,L1,Sciences biologiques-Geosciences,2021-09-01,2022-05-31,2021-09-01,2021-12-20,2022-01-10,2022-05-31,null,null,
Science de la Vie,BCP,Licence,L2,Sciences biologiques-Geosciences,2021-09-01,2022-05-31,2021-09-01,2021-12-20,2022-01-10,2022-05-31,null,null,
Science de la Vie,BCP,Licence,L3,Sciences biologiques-Geosciences,2021-09-01,2022-05-31,2021-09-01,2021-12-20,2022-01-10,2022-05-31,null,null,
Science de la Vie,BOPE,Licence,L1,Sciences biologiques-Geosciences,2021-09-01,2022-05-31,2021-09-01,2021-12-20,2022-01-10,2022-05-31,null,null,
Science de la Vie,BOPE,Licence,L2,Sciences biologiques-Geosciences,2021-09-01,2022-05-31,2021-09-01,2021-12-20,2022-01-10,2022-05-31,null,null,
Science de la Vie,BOPE,Licence,L3,Sciences biologiques-Geosciences,2021-09-01,2022-05-31,2021-09-01,2021-12-20,2022-01-10,2022-05-31,null,null,
Science de la Vie,IPE,Licence,L1,Sciences biologiques-Geosciences,2021-09-01,2022-05-31,2021-09-01,2021-12-20,2022-01-10,2022-05-31,null,null,
Science de la Vie,IPE,Licence,L2,Sciences biologiques-Geosciences,2021-09-01,2022-05-31,2021-09-01,2021-12-20,2022-01-10,2022-05-31,null,null,
Science de la Vie,IPE,Licence,L3,Sciences biologiques-Geosciences,2021-09-01,2022-05-31,2021-09-01,2021-12-20,2022-01-10,2022-05-31,null,null,
Science de la Vie,PPE,Licence,L1,Sciences biologiques-Geosciences,2021-09-01,2022-05-31,2021-09-01,2021-12-20,2022-01-10,2022-05-31,null,null,
Science de la Vie,PPE,Licence,L2,Sciences biologiques-Geosciences,2021-09-01,2022-05-31,2021-09-01,2021-12-20,2022-01-10,2022-05-31,null,null,
Science de la Vie,PPE,Licence,L3,Sciences biologiques-Geosciences,2021-09-01,2022-05-31,2021-09-01,2021-12-20,2022-01-10,2022-05-31,null,null,
Science de la Vie,SVT-E,Licence,L1,Sciences biologiques-Geosciences,2021-09-01,2022-05-31,2021-09-01,2021-12-20,2022-01-10,2022-05-31,null,null,
Science de la Vie,SVT-E,Licence,L2,Sciences biologiques-Geosciences,2021-09-01,2022-05-31,2021-09-01,2021-12-20,2022-01-10,2022-05-31,null,null,
Science de la Vie,SVT-E,Licence,L3,Sciences biologiques-Geosciences,2021-09-01,2022-05-31,2021-09-01,2021-12-20,2022-01-10,2022-05-31,null,null,
Informatique,IHM,Master,M1,Sciences du Numerique,2021-09-01,2022-05-31,2021-09-01,2021-12-20,2022-01-10,2022-05-31,null,null,
Informatique,IHM,Master,M2,Sciences du Numerique,2021-09-01,2022-05-31,2021-09-01,2021-12-20,2022-01-10,2022-05-31,null,null,
Informatique,CSA,Master,M1,Sciences du Numerique,2021-09-01,2022-05-31,2021-09-01,2021-12-20,2022-01-10,2022-05-31,null,null,
Informatique,CSA,Master,M2,Sciences du Numerique,2021-09-01,2022-05-31,2021-09-01,2021-12-20,2022-01-10,2022-05-31,null,null,
Informatique,DL,Master,M1,Sciences du Numerique,2021-09-01,2022-05-31,2021-09-01,2021-12-20,2022-01-10,2022-05-31,null,null,
Informatique,DL,Master,M2,Sciences du Numerique,2021-09-01,2022-05-31,2021-09-01,2021-12-20,2022-01-10,2022-05-31,null,null,
Informatique,IARF,Master,M1,Sciences du Numerique,2021-09-01,2022-05-31,2021-09-01,2021-12-20,2022-01-10,2022-05-31,null,null,
Informatique,IARF,Master,M2,Sciences du Numerique,2021-09-01,2022-05-31,2021-09-01,2021-12-20,2022-01-10,2022-05-31,null,null,
Informatique,DC-IA,Master,M1,Sciences du Numerique,2021-09-01,2022-05-31,2021-09-01,2021-12-20,2022-01-10,2022-05-31,null,null,
Informatique,DC-IA,Master,M2,Sciences du Numerique,2021-09-01,2022-05-31,2021-09-01,2021-12-20,2022-01-10,2022-05-31,null,null,
MIAGE,IDP,Master,M1,Sciences du Numerique,2021-09-01,2022-05-31,2021-09-01,2021-12-20,2022-01-10,2022-05-31,null,null,
MIAGE,IDP,Master,M2,Sciences du Numerique,2021-09-01,2022-05-31,2021-09-01,2021-12-20,2022-01-10,2022-05-31,null,null,
MIAGE,ITN,Master,M1,Sciences du Numerique,2021-09-01,2022-05-31,2021-09-01,2021-12-20,2022-01-10,2022-05-31,null,null,
MIAGE,ITN,Master,M2,Sciences du Numerique,2021-09-01,2022-05-31,2021-09-01,2021-12-20,2022-01-10,2022-05-31,null,null,
Science de la Terre et des planetes environnement,SGE,Master,M1,Sciences biologiques-Geosciences,2021-09-01,2022-05-31,2021-09-01,2021-12-20,2022-01-10,2022-05-31,null,null,
Science de la Terre et des planetes environnement,SGE,Master,M2,Sciences biologiques-Geosciences,2021-09-01,2022-05-31,2021-09-01,2021-12-20,2022-01-10,2022-05-31,null,null,
Science de la Terre et des planetes environnement,TG,Master,M1,Sciences biologiques-Geosciences,2021-09-01,2022-05-31,2021-09-01,2021-12-20,2022-01-10,2022-05-31,null,null,
Science de la Terre et des planetes environnement,TG,Master,M2,Sciences biologiques-Geosciences,2021-09-01,2022-05-31,2021-09-01,2021-12-20,2022-01-10,2022-05-31,null,null,
Biologie vegetale, ADAM,Master,M1,Sciences biologiques-Geosciences,2021-09-01,2022-05-31,2021-09-01,2021-12-20,2022-01-10,2022-05-31,null,null,
Biologie vegetale,ADAM,Master,M2,Sciences biologiques-Geosciences,2021-09-01,2022-05-31,2021-09-01,2021-12-20,2022-01-10,2022-05-31,null,null,
Biologie vegetale, EVE,Master,M1,Sciences biologiques-Geosciences,2021-09-01,2022-05-31,2021-09-01,2021-12-20,2022-01-10,2022-05-31,null,null,
Biologie vegetale,EVE,Master,M2,Sciences biologiques-Geosciences,2021-09-01,2022-05-31,2021-09-01,2021-12-20,2022-01-10,2022-05-31,null,null,
EEA,ESET,Master,M1,Sciences Appliquees,2021-09-01,2022-05-31,2021-09-01,2021-12-20,2022-01-10,2022-05-31,null,null,
EEA,ESET,Master,M2,Sciences Appliquees,2021-09-01,2022-05-31,2021-09-01,2021-12-20,2022-01-10,2022-05-31,null,null,
EEA,E2-CMD,Master,M1,Sciences Appliquees,2021-09-01,2022-05-31,2021-09-01,2021-12-20,2022-01-10,2022-05-31,null,null,
EEA,E2-CMD,Master,M2,Sciences Appliquees,2021-09-01,2022-05-31,2021-09-01,2021-12-20,2022-01-10,2022-05-31,null,null,
EEA,ISTR,Master,M1,Sciences Appliquees,2021-09-01,2022-05-31,2021-09-01,2021-12-20,2022-01-10,2022-05-31,null,null,
EEA,ISTR,Master,M2,Sciences Appliquees,2021-09-01,2022-05-31,2021-09-01,2021-12-20,2022-01-10,2022-05-31,null,null,
EEA,RM-GBM,Master,M1,Sciences Appliquees,2021-09-01,2022-05-31,2021-09-01,2021-12-20,2022-01-10,2022-05-31,null,null,
EEA,RM-GBM,Master,M2,Sciences Appliquees,2021-09-01,2022-05-31,2021-09-01,2021-12-20,2022-01-10,2022-05-31,null,null,
EEA,STP,Master,M1,Sciences Appliquees,2021-09-01,2022-05-31,2021-09-01,2021-12-20,2022-01-10,2022-05-31,null,null,
EEA,STP,Master,M2,Sciences Appliquees,2021-09-01,2022-05-31,2021-09-01,2021-12-20,2022-01-10,2022-05-31,null,null,
Genie civil,COAB,Master,M1,Sciences Appliquees,2021-09-01,2022-05-31,2021-09-01,2021-12-20,2022-01-10,2022-05-31,null,null,
Genie civil,COAB,Master,M2,Sciences Appliquees,2021-09-01,2022-05-31,2021-09-01,2021-12-20,2022-01-10,2022-05-31,null,null,
Genie civil,ID-RIMS,Master,M1,Sciences Appliquees,2021-09-01,2022-05-31,2021-09-01,2021-12-20,2022-01-10,2022-05-31,null,null,
Genie civil,ID-RIMS,Master,M2,Sciences Appliquees,2021-09-01,2022-05-31,2021-09-01,2021-12-20,2022-01-10,2022-05-31,null,null,
Chimie,TCCM,Master,M1,Sciences Fondamentales,2021-09-01,2022-05-31,2021-09-01,2021-12-20,2022-01-10,2022-05-31,null,null,
Chimie,TCCM,Master,M2,Sciences Fondamentales,2021-09-01,2022-05-31,2021-09-01,2021-12-20,2022-01-10,2022-05-31,null,null,
Chimie,CAI,Master,M1,Sciences Fondamentales,2021-09-01,2022-05-31,2021-09-01,2021-12-20,2022-01-10,2022-05-31,null,null,
Chimie,CAI,Master,M2,Sciences Fondamentales,2021-09-01,2022-05-31,2021-09-01,2021-12-20,2022-01-10,2022-05-31,null,null,
Chimie,CS,Master,M1,Sciences Fondamentales,2021-09-01,2022-05-31,2021-09-01,2021-12-20,2022-01-10,2022-05-31,null,null,
Chimie,CS,Master,M2,Sciences Fondamentales,2021-09-01,2022-05-31,2021-09-01,2021-12-20,2022-01-10,2022-05-31,null,null,
Chimie,CV,Master,M1,Sciences Fondamentales,2021-09-01,2022-05-31,2021-09-01,2021-12-20,2022-01-10,2022-05-31,null,null,
Chimie,CV,Master,M2,Sciences Fondamentales,2021-09-01,2022-05-31,2021-09-01,2021-12-20,2022-01-10,2022-05-31,null,null,
Mathematiques et applications,IMA,Master,M1,Sciences Fondamentales,2021-09-01,2022-05-31,2021-09-01,2021-12-20,2022-01-10,2022-05-31,null,null,
Mathematiques et applications,IMA,Master,M2,Sciences Fondamentales,2021-09-01,2022-05-31,2021-09-01,2021-12-20,2022-01-10,2022-05-31,null,null,
Mathematiques et applications,MApI3,Master,M1,Sciences Fondamentales,2021-09-01,2022-05-31,2021-09-01,2021-12-20,2022-01-10,2022-05-31,null,null,
Mathematiques et applications,MApI3,Master,M2,Sciences Fondamentales,2021-09-01,2022-05-31,2021-09-01,2021-12-20,2022-01-10,2022-05-31,null,null,
Mathematiques et applications,SID,Master,M1,Sciences Fondamentales,2021-09-01,2022-05-31,2021-09-01,2021-12-20,2022-01-10,2022-05-31,null,null,
Mathematiques et applications,SID,Master,M2,Sciences Fondamentales,2021-09-01,2022-05-31,2021-09-01,2021-12-20,2022-01-10,2022-05-31,null,null,
Mathematiques et applications,RO,Master,M1,Sciences Fondamentales,2021-09-01,2022-05-31,2021-09-01,2021-12-20,2022-01-10,2022-05-31,null,null,
Mathematiques et applications,RO,Master,M2,Sciences Fondamentales,2021-09-01,2022-05-31,2021-09-01,2021-12-20,2022-01-10,2022-05-31,null,null,
Mathematiques et applications,RI,Master,M1,Sciences Fondamentales,2021-09-01,2022-05-31,2021-09-01,2021-12-20,2022-01-10,2022-05-31,null,null,
Mathematiques et applications,RI,Master,M2,Sciences Fondamentales,2021-09-01,2022-05-31,2021-09-01,2021-12-20,2022-01-10,2022-05-31,null,null,
STAPS,APAS,Master,M1,Sciences du sport,2021-09-01,2022-05-31,2021-09-01,2021-12-20,2022-01-10,2022-05-31,null,null,
STAPS,APAS,Master,M2,Sciences du sport,2021-09-01,2022-05-31,2021-09-01,2021-12-20,2022-01-10,2022-05-31,null,null,
STAPS,ES,Master,M1,Sciences du sport,2021-09-01,2022-05-31,2021-09-01,2021-12-20,2022-01-10,2022-05-31,null,null,
STAPS,ES,Master,M2,Sciences du sport,2021-09-01,2022-05-31,2021-09-01,2021-12-20,2022-01-10,2022-05-31,null,null,
Chimie,BUT,BUT,Annee1,BUT,2021-09-01,2022-05-31,2021-09-01,2021-12-20,2022-01-10,2022-05-31,null,null,
Chimie,BUT,BUT,Annee2,BUT,2021-09-01,2022-05-31,2021-09-01,2021-12-20,2022-01-10,2022-05-31,null,null,
Genie Biologique,BUT,BUT,Annee1,BUT,2021-09-01,2022-05-31,2021-09-01,2021-12-20,2022-01-10,2022-05-31,null,null,
Genie Biologique,BUT,BUT,Annee2,BUT,2021-09-01,2022-05-31,2021-09-01,2021-12-20,2022-01-10,2022-05-31,null,null,
Genie chimique Genie des procedes,BUT,BUT,Annee1,BUT,2021-09-01,2022-05-31,2021-09-01,2021-12-20,2022-01-10,2022-05-31,null,null,
Genie chimique Genie des procedes,BUT,BUT,Annee2,BUT,2021-09-01,2022-05-31,2021-09-01,2021-12-20,2022-01-10,2022-05-31,null,null,
Genie civil Construction durable,BUT,BUT,Annee1,BUT,2021-09-01,2022-05-31,2021-09-01,2021-12-20,2022-01-10,2022-05-31,null,null,
Genie civil Construction durable,BUT,BUT,Annee2,BUT,2021-09-01,2022-05-31,2021-09-01,2021-12-20,2022-01-10,2022-05-31,null,null,
Genie electrique et information industrielle,BUT,BUT,Annee1,BUT,2021-09-01,2022-05-31,2021-09-01,2021-12-20,2022-01-10,2022-05-31,null,null,
Genie electrique et information industrielle,BUT,BUT,Annee2,BUT,2021-09-01,2022-05-31,2021-09-01,2021-12-20,2022-01-10,2022-05-31,null,null,
Genie mecanique et productique,BUT,BUT,Annee1,BUT,2021-09-01,2022-05-31,2021-09-01,2021-12-20,2022-01-10,2022-05-31,null,null,
Genie mecanique et productique,BUT,BUT,Annee2,BUT,2021-09-01,2022-05-31,2021-09-01,2021-12-20,2022-01-10,2022-05-31,null,null,
Gestion des entreprises et administrations,BUT,BUT,Annee1,BUT,2021-09-01,2022-05-31,2021-09-01,2021-12-20,2022-01-10,2022-05-31,null,null,
Gestion des entreprises et administrations,BUT,BUT,Annee2,BUT,2021-09-01,2022-05-31,2021-09-01,2021-12-20,2022-01-10,2022-05-31,null,null,
Hygiene securite environnement,BUT,BUT,Annee1,BUT,2021-09-01,2022-05-31,2021-09-01,2021-12-20,2022-01-10,2022-05-31,null,null,
Hygiene securite environnement,BUT,BUT,Annee2,BUT,2021-09-01,2022-05-31,2021-09-01,2021-12-20,2022-01-10,2022-05-31,null,null,
Information Communication,BUT,BUT,Annee1,BUT,2021-09-01,2022-05-31,2021-09-01,2021-12-20,2022-01-10,2022-05-31,null,null,
Information Communication,BUT,BUT,Annee2,BUT,2021-09-01,2022-05-31,2021-09-01,2021-12-20,2022-01-10,2022-05-31,null,null,
Informatique,BUT,BUT,Annee1,BUT,2021-09-01,2022-05-31,2021-09-01,2021-12-20,2022-01-10,2022-05-31,null,null,
Informatique,BUT,BUT,Annee2,BUT,2021-09-01,2022-05-31,2021-09-01,2021-12-20,2022-01-10,2022-05-31,null,null,
Mesurephysiques,BUT,BUT,Annee1,BUT,2021-09-01,2022-05-31,2021-09-01,2021-12-20,2022-01-10,2022-05-31,null,null,
Mesurephysiques,BUT,BUT,Annee2,BUT,2021-09-01,2022-05-31,2021-09-01,2021-12-20,2022-01-10,2022-05-31,null,null,
Metiers du multimedia et de l internet,BUT,BUT,Annee1,BUT,2021-09-01,2022-05-31,2021-09-01,2021-12-20,2022-01-10,2022-05-31,null,null,
Metiers du multimedia et de l internet,BUT,BUT,Annee2,BUT,2021-09-01,2022-05-31,2021-09-01,2021-12-20,2022-01-10,2022-05-31,null,null,
Packaging emballage et conditionnement,BUT,BUT,Annee1,BUT,2021-09-01,2022-05-31,2021-09-01,2021-12-20,2022-01-10,2022-05-31,null,null,
Packaging emballage et conditionnement,BUT,BUT,Annee2,BUT,2021-09-01,2022-05-31,2021-09-01,2021-12-20,2022-01-10,2022-05-31,null,null,
Techniques de commercialisation,BUT,BUT,Annee1,BUT,2021-09-01,2022-05-31,2021-09-01,2021-12-20,2022-01-10,2022-05-31,null,null,
Techniques de commercialisation,BUT,BUT,Annee2,BUT,2021-09-01,2022-05-31,2021-09-01,2021-12-20,2022-01-10,2022-05-31,null,null,