codeUE,nomUE,nbECTS,ouverture,prerequis,listeNumEtudiantInscrit,listeNumEtudiantValide,Semestre,creneau
1,Java,3,false,null,3/9/6/2/4/7/,2/3/,1,1,
2,Java2,3,false,null,3/,null,2,1,
3,Java3,3,false,null,null,null,1,1,
4,Harmonisation,6,false,null,1/2/4/7/58/,1/2/58,1,2,
5,Reseaux et services,3,false,null,1/2/3/4/5/9/6/,4/6/,1,3,
6,BD,3,false,null,1/2/3/4/5/9/6/8/7/60/,null,1,4,
7,Conception objet et outillages,3,false,null,1/2/3/4/5/6/,null,1,5,
8,RO,3,false,null,1/2/3/4/5/8/10/13/14/12/7/11/6/58,8/3/10/13/14/12/58/2/,1,6,
9,Economie et droit du travail,3,false,null,null,null,1,7,
10,Gestion de projets,3,false,null,null,null,1,8,
11,Information et decision,3,false,null,null,null,1,3,
12,Anglais,3,false,null,null,null,1,4,
13,Application web 2.0,3,false,null,null,null,2,1,
14,BD,3,false,null,5/,null,2,2,
15,Applications objets concurrentes,3,false,null,null,null,2,3,
16,Outils statistiques,3,true,4/8/,null,null,2,4,
17,Methode de developpement structure,3,false,null,null,null,2,5,
18,Gestion financiere,3,false,null,null,null,2,6,
19,Gestion de projets informatiques,3,false,null,null,null,2,7,
20,Anglais,3,false,null,null,null,2,8,
21,Projet professionnel,3,false,null,null,null,2,8,
22,Systemes 1,3,false,null,null,null,1,0,
23,Interaction Homme-Machine,3,false,null,null,null,1,0,
24,Reseaux 1,3,false,null,null,null,1,0,
25,Mathematiques pour l’informatique 1,3,false,null,null,null,1,0,
26,Anglais,3,false,null,null,null,1,0,
27,Systemes d’Information d’Entreprises,3,false,null,null,null,1,0,
28,Principes de gestion d’entreprises,3,false,null,null,null,1,0,
29,Equipements informatiques et TN,3,false,null,null,null,1,0,
30,Developpements et environnements,3,false,null,null,null,1,0,
31,Fondements de la programmation,3,false,null,null,null,1,0,
32,Bases de donnees 1,3,false,null,null,null,2,0,
33,Systemes 2,3,false,null,null,null,2,0,
34,POO 1,3,false,null,null,null,2,0,
35,Mathematiques pour l’informatique 2,3,false,null,null,null,2,0,
36,Anglais,3,false,null,null,null,2,0,
37,Projet professionnel,3,false,null,null,null,2,0,
38,Projet collaboratif et transversal,3,false,null,null,null,2,0,
39,Introduction aux BD,3,false,null,null,null,2,0,
40,Concept avances de gestion,3,false,null,null,null,2,0,
41,Interactivite et Gamification,3,false,null,null,null,2,0,